{
  "pathsToIds" : {
    "\/RealityKitContent\/Sources\/RealityKitContent\/RealityKitContent.rkassets\/GridMaterial.usda" : "CB766F92-EE55-4A63-9401-E7B8C009764D",
    "\/RealityKitContent\/Sources\/RealityKitContent\/RealityKitContent.rkassets\/Immersive.usda" : "65F6F990-A780-4474-B78B-572E0E4E273D",
    "\/RealityKitContent\/Sources\/RealityKitContent\/RealityKitContent.rkassets\/Scene.usda" : "0A9B4653-B11E-4D6A-850E-C6FCB621626C",
    "\/RealityKitContent\/Sources\/RealityKitContent\/RealityKitContent.rkassets\/Untitled Scene.usda" : "D560BB77-AAF3-4BDE-B7C4-989332A4688B",
    "RealityKitContent\/Sources\/RealityKitContent\/RealityKitContent.rkassets\/Character_Baked.usdz" : "C0B60FE5-05D7-46BA-B896-4F6687931224",
    "RealityKitContent\/Sources\/RealityKitContent\/RealityKitContent.rkassets\/cricket_stadium.usdz" : "5A1D092A-4DF4-4854-8F69-30F36EAB9337",
    "RealityKitContent\/Sources\/RealityKitContent\/RealityKitContent.rkassets\/GridMaterial.usda" : "66168B71-AB05-424E-8B6C-D33D6E61B08F",
    "RealityKitContent\/Sources\/RealityKitContent\/RealityKitContent.rkassets\/Immersive.usda" : "AF09ED6F-1707-48FD-8720-65B998362C09",
    "RealityKitContent\/Sources\/RealityKitContent\/RealityKitContent.rkassets\/new 1.usda" : "5565E81B-4256-4755-AE3B-7811E28568ED",
    "RealityKitContent\/Sources\/RealityKitContent\/RealityKitContent.rkassets\/new.usda" : "707DC485-6131-495A-B591-89032E8AA902",
    "RealityKitContent\/Sources\/RealityKitContent\/RealityKitContent.rkassets\/play.usda" : "C92045BB-FAE4-4874-8E1D-47C2AF9779F4",
    "RealityKitContent\/Sources\/RealityKitContent\/RealityKitContent.rkassets\/scaled trivandrum.usdz" : "7CF5D200-4FFF-4979-95CB-BDE097265928",
    "RealityKitContent\/Sources\/RealityKitContent\/RealityKitContent.rkassets\/Scene.usda" : "D66134B1-3681-4A8E-AFE5-29F257229F3B"
  }
}